%TF.GenerationSoftware,KiCad,Pcbnew,(5.1.7)-1*%
%TF.CreationDate,2021-01-14T12:15:53+01:00*%
%TF.ProjectId,Printer-Controls,5072696e-7465-4722-9d43-6f6e74726f6c,rev?*%
%TF.SameCoordinates,Original*%
%TF.FileFunction,Soldermask,Bot*%
%TF.FilePolarity,Negative*%
%FSLAX46Y46*%
G04 Gerber Fmt 4.6, Leading zero omitted, Abs format (unit mm)*
G04 Created by KiCad (PCBNEW (5.1.7)-1) date 2021-01-14 12:15:53*
%MOMM*%
%LPD*%
G01*
G04 APERTURE LIST*
%ADD10O,1.400000X1.400000*%
%ADD11C,1.400000*%
%ADD12C,1.500000*%
%ADD13C,1.950000*%
%ADD14R,1.500000X1.500000*%
%ADD15C,2.010000*%
%ADD16O,2.200000X2.200000*%
%ADD17R,2.200000X2.200000*%
%ADD18O,1.700000X1.700000*%
%ADD19R,1.700000X1.700000*%
%ADD20C,1.600000*%
%ADD21R,1.600000X1.600000*%
%ADD22C,5.500000*%
%ADD23O,2.000000X1.905000*%
%ADD24R,2.000000X1.905000*%
%ADD25R,1.500000X1.050000*%
%ADD26O,1.500000X1.050000*%
%ADD27R,1.050000X1.500000*%
%ADD28O,1.050000X1.500000*%
%ADD29C,2.300000*%
%ADD30R,2.300000X2.000000*%
%ADD31C,3.000000*%
%ADD32R,3.000000X3.000000*%
%ADD33R,3.500000X3.500000*%
%ADD34C,0.254000*%
%ADD35C,0.100000*%
G04 APERTURE END LIST*
D10*
%TO.C,R4*%
X176911000Y-55753000D03*
D11*
X184531000Y-55753000D03*
%TD*%
D12*
%TO.C,K1*%
X100802000Y-41000000D03*
D13*
X100802000Y-21000000D03*
X108302000Y-24500000D03*
D14*
X108302000Y-41000000D03*
%TD*%
D15*
%TO.C,F2*%
X193986000Y-17953000D03*
X192786000Y-23053000D03*
%TD*%
%TO.C,F1*%
X163403600Y-41713300D03*
X168503600Y-42913300D03*
%TD*%
D16*
%TO.C,D2*%
X173723300Y-42926000D03*
D17*
X186423300Y-42926000D03*
%TD*%
D18*
%TO.C,U1*%
X120394000Y-66802000D03*
X117854000Y-66802000D03*
X135634000Y-66802000D03*
X153414000Y-66802000D03*
X155954000Y-66802000D03*
X148334000Y-66802000D03*
X138174000Y-66802000D03*
X130554000Y-66802000D03*
X128014000Y-66802000D03*
X150874000Y-66802000D03*
X143254000Y-66802000D03*
X122934000Y-66802000D03*
X145794000Y-66802000D03*
X140714000Y-66802000D03*
X158494000Y-66802000D03*
D19*
X115314000Y-66802000D03*
D18*
X133094000Y-66802000D03*
X125474000Y-66802000D03*
X120394000Y-41562000D03*
X117854000Y-41562000D03*
X135634000Y-41562000D03*
X153414000Y-41562000D03*
X155954000Y-41562000D03*
X148334000Y-41562000D03*
X138174000Y-41562000D03*
X130554000Y-41562000D03*
X128014000Y-41562000D03*
X150874000Y-41562000D03*
X143254000Y-41562000D03*
X122934000Y-41562000D03*
X145794000Y-41562000D03*
X140714000Y-41562000D03*
X158494000Y-41562000D03*
D19*
X115314000Y-41562000D03*
D18*
X133094000Y-41562000D03*
X125474000Y-41562000D03*
%TD*%
D20*
%TO.C,C6*%
X115544600Y-74369300D03*
D21*
X115544600Y-71869300D03*
%TD*%
D22*
%TO.C,H4*%
X210439000Y-75438000D03*
%TD*%
%TO.C,H3*%
X92710000Y-42037000D03*
%TD*%
%TO.C,H2*%
X92710000Y-75438000D03*
%TD*%
%TO.C,H1*%
X210439000Y-16383000D03*
%TD*%
D18*
%TO.C,RotaryEncoder1*%
X122936000Y-72263000D03*
X125476000Y-72263000D03*
X128016000Y-72263000D03*
X130556000Y-72263000D03*
D19*
X133096000Y-72263000D03*
%TD*%
D10*
%TO.C,R3*%
X179306000Y-51689000D03*
D11*
X171686000Y-51689000D03*
%TD*%
D10*
%TO.C,R2*%
X148501100Y-77089000D03*
D11*
X140881100Y-77089000D03*
%TD*%
D10*
%TO.C,R1*%
X102054000Y-60926000D03*
D11*
X102054000Y-53306000D03*
%TD*%
D23*
%TO.C,Q3*%
X193022000Y-49149000D03*
X193022000Y-51689000D03*
D24*
X193022000Y-54229000D03*
%TD*%
D25*
%TO.C,Q2*%
X185275000Y-52959000D03*
D26*
X185275000Y-50419000D03*
X185275000Y-51689000D03*
%TD*%
D27*
%TO.C,Q1*%
X103324000Y-47502100D03*
D28*
X100784000Y-47502100D03*
X102054000Y-47502100D03*
%TD*%
D18*
%TO.C,PZEM1*%
X136994000Y-72263000D03*
X139534000Y-72263000D03*
X142074000Y-72263000D03*
D19*
X144614000Y-72263000D03*
%TD*%
D29*
%TO.C,PS1*%
X163400000Y-33200000D03*
X134000000Y-28000000D03*
D30*
X134000000Y-23000000D03*
D29*
X163400000Y-17800000D03*
%TD*%
D31*
%TO.C,Light_Out_Screw1*%
X209423000Y-63207000D03*
D32*
X209423000Y-68287000D03*
%TD*%
%TO.C,Light_Out1*%
G36*
G01*
X204173000Y-47125000D02*
X204173000Y-48875000D01*
G75*
G02*
X203298000Y-49750000I-875000J0D01*
G01*
X201548000Y-49750000D01*
G75*
G02*
X200673000Y-48875000I0J875000D01*
G01*
X200673000Y-47125000D01*
G75*
G02*
X201548000Y-46250000I875000J0D01*
G01*
X203298000Y-46250000D01*
G75*
G02*
X204173000Y-47125000I0J-875000D01*
G01*
G37*
G36*
G01*
X206923000Y-51700000D02*
X206923000Y-53700000D01*
G75*
G02*
X206173000Y-54450000I-750000J0D01*
G01*
X204673000Y-54450000D01*
G75*
G02*
X203923000Y-53700000I0J750000D01*
G01*
X203923000Y-51700000D01*
G75*
G02*
X204673000Y-50950000I750000J0D01*
G01*
X206173000Y-50950000D01*
G75*
G02*
X206923000Y-51700000I0J-750000D01*
G01*
G37*
D33*
X199423000Y-52700000D03*
%TD*%
D18*
%TO.C,LCD1*%
X157480000Y-72263000D03*
X160020000Y-72263000D03*
X162560000Y-72263000D03*
D19*
X165100000Y-72263000D03*
%TD*%
D18*
%TO.C,Ext_IIC1*%
X169418000Y-72263000D03*
X169418000Y-69723000D03*
X169418000Y-67183000D03*
D19*
X169418000Y-64643000D03*
%TD*%
D31*
%TO.C,Ext_12V_IN1*%
X209423000Y-23114000D03*
D32*
X209423000Y-38354000D03*
D31*
X209423000Y-28194000D03*
X209423000Y-33274000D03*
%TD*%
D18*
%TO.C,DHT22*%
X148502000Y-72263000D03*
X151042000Y-72263000D03*
D19*
X153582000Y-72263000D03*
%TD*%
D16*
%TO.C,D1*%
X201549000Y-36068000D03*
D17*
X188849000Y-36068000D03*
%TD*%
D20*
%TO.C,C5*%
X201549000Y-43341000D03*
D21*
X201549000Y-40841000D03*
%TD*%
D20*
%TO.C,C4*%
X183007000Y-31252000D03*
D21*
X183007000Y-35052000D03*
%TD*%
D20*
%TO.C,C3*%
X172339000Y-31252000D03*
D21*
X172339000Y-35052000D03*
%TD*%
D20*
%TO.C,C2*%
X183007000Y-19253000D03*
D21*
X183007000Y-23053000D03*
%TD*%
D20*
%TO.C,C1*%
X172339000Y-19253000D03*
D21*
X172339000Y-23053000D03*
%TD*%
D31*
%TO.C,AC_Out1*%
X116840000Y-20955000D03*
X116840000Y-26035000D03*
D32*
X116840000Y-31115000D03*
%TD*%
D31*
%TO.C,AC_In1*%
X92925900Y-31165800D03*
X92925900Y-26085800D03*
D32*
X92925900Y-21005800D03*
%TD*%
D18*
%TO.C,3V3_STEP_DOWN_1*%
X199377300Y-17970500D03*
X199377300Y-20510500D03*
X199377300Y-23050500D03*
X199377300Y-25590500D03*
X199377300Y-28130500D03*
D19*
X199377300Y-30670500D03*
%TD*%
D34*
X132696743Y-15126975D02*
X133894444Y-16345042D01*
X133895299Y-16345904D01*
X134874000Y-17322398D01*
X134874000Y-23864464D01*
X133220303Y-23756822D01*
X133095967Y-18331090D01*
X133092959Y-18306376D01*
X133085188Y-18282724D01*
X133072952Y-18261042D01*
X133053394Y-18239096D01*
X131834394Y-17155096D01*
X131814257Y-17140455D01*
X131791651Y-17130024D01*
X131767445Y-17124204D01*
X131750000Y-17123000D01*
X103250000Y-17123000D01*
X103225224Y-17125440D01*
X103201399Y-17132667D01*
X103179443Y-17144403D01*
X103159467Y-17160934D01*
X101763467Y-18579934D01*
X101747830Y-18599308D01*
X101736274Y-18621359D01*
X101729242Y-18645242D01*
X101727000Y-18669000D01*
X101727000Y-21844484D01*
X94249516Y-21873001D01*
X94224749Y-21875536D01*
X94200952Y-21882854D01*
X94179040Y-21894673D01*
X94160197Y-21910197D01*
X93947394Y-22123000D01*
X91627000Y-22123000D01*
X91627000Y-19649919D01*
X94479121Y-20125272D01*
X94500000Y-20127000D01*
X99750000Y-20127000D01*
X99774776Y-20124560D01*
X99798601Y-20117333D01*
X99820557Y-20105597D01*
X99839803Y-20089803D01*
X99855597Y-20070557D01*
X99867333Y-20048601D01*
X99874560Y-20024776D01*
X99876961Y-19996855D01*
X99823310Y-17831296D01*
X102541582Y-15113024D01*
X132696743Y-15126975D01*
D35*
G36*
X132696743Y-15126975D02*
G01*
X133894444Y-16345042D01*
X133895299Y-16345904D01*
X134874000Y-17322398D01*
X134874000Y-23864464D01*
X133220303Y-23756822D01*
X133095967Y-18331090D01*
X133092959Y-18306376D01*
X133085188Y-18282724D01*
X133072952Y-18261042D01*
X133053394Y-18239096D01*
X131834394Y-17155096D01*
X131814257Y-17140455D01*
X131791651Y-17130024D01*
X131767445Y-17124204D01*
X131750000Y-17123000D01*
X103250000Y-17123000D01*
X103225224Y-17125440D01*
X103201399Y-17132667D01*
X103179443Y-17144403D01*
X103159467Y-17160934D01*
X101763467Y-18579934D01*
X101747830Y-18599308D01*
X101736274Y-18621359D01*
X101729242Y-18645242D01*
X101727000Y-18669000D01*
X101727000Y-21844484D01*
X94249516Y-21873001D01*
X94224749Y-21875536D01*
X94200952Y-21882854D01*
X94179040Y-21894673D01*
X94160197Y-21910197D01*
X93947394Y-22123000D01*
X91627000Y-22123000D01*
X91627000Y-19649919D01*
X94479121Y-20125272D01*
X94500000Y-20127000D01*
X99750000Y-20127000D01*
X99774776Y-20124560D01*
X99798601Y-20117333D01*
X99820557Y-20105597D01*
X99839803Y-20089803D01*
X99855597Y-20070557D01*
X99867333Y-20048601D01*
X99874560Y-20024776D01*
X99876961Y-19996855D01*
X99823310Y-17831296D01*
X102541582Y-15113024D01*
X132696743Y-15126975D01*
G37*
D34*
X134554921Y-28714473D02*
X131138394Y-32131000D01*
X94107000Y-32131000D01*
X94107000Y-30226000D01*
X130429000Y-30226000D01*
X130453776Y-30223560D01*
X130477601Y-30216333D01*
X130499557Y-30204597D01*
X130518803Y-30188803D01*
X133106953Y-27600653D01*
X134554921Y-28714473D01*
D35*
G36*
X134554921Y-28714473D02*
G01*
X131138394Y-32131000D01*
X94107000Y-32131000D01*
X94107000Y-30226000D01*
X130429000Y-30226000D01*
X130453776Y-30223560D01*
X130477601Y-30216333D01*
X130499557Y-30204597D01*
X130518803Y-30188803D01*
X133106953Y-27600653D01*
X134554921Y-28714473D01*
G37*
D34*
X117983000Y-21971000D02*
X112268000Y-21971000D01*
X112243224Y-21973440D01*
X112219399Y-21980667D01*
X112197443Y-21992403D01*
X112179845Y-22006580D01*
X108660743Y-25400000D01*
X107569000Y-25400000D01*
X107569000Y-23801606D01*
X111304606Y-20066000D01*
X117983000Y-20066000D01*
X117983000Y-21971000D01*
D35*
G36*
X117983000Y-21971000D02*
G01*
X112268000Y-21971000D01*
X112243224Y-21973440D01*
X112219399Y-21980667D01*
X112197443Y-21992403D01*
X112179845Y-22006580D01*
X108660743Y-25400000D01*
X107569000Y-25400000D01*
X107569000Y-23801606D01*
X111304606Y-20066000D01*
X117983000Y-20066000D01*
X117983000Y-21971000D01*
G37*
M02*
