EESchema Schematic File Version 4
EELAYER 30 0
EELAYER END
$Descr A4 11693 8268
encoding utf-8
Sheet 1 1
Title ""
Date ""
Rev ""
Comp ""
Comment1 ""
Comment2 ""
Comment3 ""
Comment4 ""
$EndDescr
$Comp
L MCU_ESP_32_DEVKIT_V1_36_PINS:ESP32_DEVKIT_V1_36_PINS U1
U 1 1 5FBC00AB
P 5750 3400
F 0 "U1" H 5700 3515 50  0000 C CNN
F 1 "ESP32_DEVKIT_V1_36_PINS" H 5700 3424 50  0000 C CNN
F 2 "Footprints:ESP32_DEVKIT_V1_36_PINS" H 5750 3400 50  0001 C CNN
F 3 "" H 5750 3400 50  0001 C CNN
	1    5750 3400
	1    0    0    -1  
$EndComp
$Comp
L Connector:Conn_01x04_Male PZEM1
U 1 1 5FBC159C
P 3150 4400
F 0 "PZEM1" H 3100 4650 50  0000 L CNN
F 1 "Conn_01x04_Female" H 2750 4650 50  0001 L CNN
F 2 "Connector_PinSocket_2.54mm:PinSocket_1x04_P2.54mm_Vertical" H 3150 4400 50  0001 C CNN
F 3 "~" H 3150 4400 50  0001 C CNN
	1    3150 4400
	1    0    0    -1  
$EndComp
$Comp
L power:+3V3 #PWR0101
U 1 1 5FBC363C
P 3650 4250
F 0 "#PWR0101" H 3650 4100 50  0001 C CNN
F 1 "+3V3" H 3665 4423 50  0000 C CNN
F 2 "" H 3650 4250 50  0001 C CNN
F 3 "" H 3650 4250 50  0001 C CNN
	1    3650 4250
	1    0    0    -1  
$EndComp
Wire Wire Line
	3350 4300 3650 4300
Wire Wire Line
	3650 4300 3650 4250
Text GLabel 3350 4400 2    50   Input ~ 0
PZEM_RX
Text GLabel 3350 4500 2    50   Input ~ 0
PZEM_TX
$Comp
L power:GND #PWR0102
U 1 1 5FBC5071
P 3650 4650
F 0 "#PWR0102" H 3650 4400 50  0001 C CNN
F 1 "GND" H 3655 4477 50  0000 C CNN
F 2 "" H 3650 4650 50  0001 C CNN
F 3 "" H 3650 4650 50  0001 C CNN
	1    3650 4650
	1    0    0    -1  
$EndComp
Wire Wire Line
	3350 4600 3650 4600
Text GLabel 5300 4450 0    50   Input ~ 0
PZEM_RX
Text GLabel 5300 4350 0    50   Input ~ 0
PZEM_TX
Wire Wire Line
	3650 4600 3650 4650
$Comp
L power:+3V3 #PWR0103
U 1 1 5FBC5D1F
P 5050 3850
F 0 "#PWR0103" H 5050 3700 50  0001 C CNN
F 1 "+3V3" H 5065 4023 50  0000 C CNN
F 2 "" H 5050 3850 50  0001 C CNN
F 3 "" H 5050 3850 50  0001 C CNN
	1    5050 3850
	1    0    0    -1  
$EndComp
$Comp
L power:GND #PWR0104
U 1 1 5FBC65BF
P 6350 3950
F 0 "#PWR0104" H 6350 3700 50  0001 C CNN
F 1 "GND" H 6355 3777 50  0000 C CNN
F 2 "" H 6350 3950 50  0001 C CNN
F 3 "" H 6350 3950 50  0001 C CNN
	1    6350 3950
	1    0    0    -1  
$EndComp
Wire Wire Line
	6100 3950 6350 3950
$Comp
L Connector:Conn_01x04_Male LCD1
U 1 1 5FBC83DF
P 3150 5100
F 0 "LCD1" H 3100 5350 50  0000 L CNN
F 1 "Conn_01x04_Female" H 2750 5350 50  0001 L CNN
F 2 "Connector_PinSocket_2.54mm:PinSocket_1x04_P2.54mm_Vertical" H 3150 5100 50  0001 C CNN
F 3 "~" H 3150 5100 50  0001 C CNN
	1    3150 5100
	1    0    0    -1  
$EndComp
$Comp
L power:+3V3 #PWR0105
U 1 1 5FBC83E5
P 4000 5900
F 0 "#PWR0105" H 4000 5750 50  0001 C CNN
F 1 "+3V3" H 4015 6073 50  0000 C CNN
F 2 "" H 4000 5900 50  0001 C CNN
F 3 "" H 4000 5900 50  0001 C CNN
	1    4000 5900
	1    0    0    -1  
$EndComp
$Comp
L power:GND #PWR0106
U 1 1 5FBC83EF
P 3850 6100
F 0 "#PWR0106" H 3850 5850 50  0001 C CNN
F 1 "GND" H 3855 5927 50  0000 C CNN
F 2 "" H 3850 6100 50  0001 C CNN
F 3 "" H 3850 6100 50  0001 C CNN
	1    3850 6100
	1    0    0    -1  
$EndComp
Text GLabel 3350 5100 2    50   Input ~ 0
LCD_SDA
Text GLabel 3350 5000 2    50   Input ~ 0
LCD_SCL
Text GLabel 5300 5150 0    50   Input ~ 0
SCL
Text GLabel 5300 4850 0    50   Input ~ 0
SDA
$Comp
L Converter_ACDC:HLK-PM03 PS1
U 1 1 5FBCA229
P 4350 2350
F 0 "PS1" H 4350 2675 50  0000 C CNN
F 1 "HLK-PM12" H 4350 2584 50  0000 C CNN
F 2 "Converter_ACDC:Converter_ACDC_HiLink_HLK-PMxx" H 4350 2050 50  0001 C CNN
F 3 "http://www.hlktech.net/product_detail.php?ProId=59" H 4750 2000 50  0001 C CNN
	1    4350 2350
	1    0    0    -1  
$EndComp
$Comp
L power:GND #PWR0107
U 1 1 5FBCDDC9
P 5050 2500
F 0 "#PWR0107" H 5050 2250 50  0001 C CNN
F 1 "GND" H 5055 2327 50  0000 C CNN
F 2 "" H 5050 2500 50  0001 C CNN
F 3 "" H 5050 2500 50  0001 C CNN
	1    5050 2500
	1    0    0    -1  
$EndComp
Wire Wire Line
	4750 2450 5050 2450
Wire Wire Line
	5050 2450 5050 2500
$Comp
L Connector:Screw_Terminal_01x03 AC_In1
U 1 1 5FBCECD8
P 3550 2350
F 0 "AC_In1" H 3550 2150 50  0000 C CNN
F 1 "Screw_Terminal_01x03" H 3800 2600 50  0001 C CNN
F 2 "TerminalBlock:TerminalBlock_bornier-3_P5.08mm" H 3550 2350 50  0001 C CNN
F 3 "~" H 3550 2350 50  0001 C CNN
	1    3550 2350
	-1   0    0    -1  
$EndComp
$Comp
L power:Earth #PWR0108
U 1 1 5FBD17E1
P 3850 2550
F 0 "#PWR0108" H 3850 2300 50  0001 C CNN
F 1 "Earth" H 3850 2400 50  0001 C CNN
F 2 "" H 3850 2550 50  0001 C CNN
F 3 "~" H 3850 2550 50  0001 C CNN
	1    3850 2550
	1    0    0    -1  
$EndComp
Wire Wire Line
	3750 2350 3850 2350
Wire Wire Line
	3850 2350 3850 2550
$Comp
L Transistor_BJT:S8050 Q1
U 1 1 5FBDA0E0
P 2050 1350
F 0 "Q1" H 2240 1396 50  0000 L CNN
F 1 "S8050" H 2240 1305 50  0000 L CNN
F 2 "Package_TO_SOT_THT:TO-92_Inline" H 2250 1275 50  0001 L CIN
F 3 "http://www.unisonic.com.tw/datasheet/S8050.pdf" H 2050 1350 50  0001 L CNN
	1    2050 1350
	1    0    0    -1  
$EndComp
$Comp
L Device:R R1
U 1 1 5FBDC6AC
P 1700 1350
F 0 "R1" V 1493 1350 50  0000 C CNN
F 1 "4.7k" V 1584 1350 50  0000 C CNN
F 2 "Resistor_THT:R_Axial_DIN0204_L3.6mm_D1.6mm_P7.62mm_Horizontal" V 1630 1350 50  0001 C CNN
F 3 "~" H 1700 1350 50  0001 C CNN
	1    1700 1350
	0    1    1    0   
$EndComp
$Comp
L power:GND #PWR0109
U 1 1 5FBDDAAB
P 2150 1550
F 0 "#PWR0109" H 2150 1300 50  0001 C CNN
F 1 "GND" H 2155 1377 50  0000 C CNN
F 2 "" H 2150 1550 50  0001 C CNN
F 3 "" H 2150 1550 50  0001 C CNN
	1    2150 1550
	1    0    0    -1  
$EndComp
$Comp
L Connector:Screw_Terminal_01x03 AC_Out1
U 1 1 5FBE4F22
P 5050 1350
F 0 "AC_Out1" H 5130 1346 50  0000 L CNN
F 1 "Screw_Terminal_01x03" H 5130 1301 50  0001 L CNN
F 2 "TerminalBlock:TerminalBlock_bornier-3_P5.08mm" H 5050 1350 50  0001 C CNN
F 3 "~" H 5050 1350 50  0001 C CNN
	1    5050 1350
	1    0    0    1   
$EndComp
Wire Wire Line
	2150 1150 2750 1150
Connection ~ 3750 2250
Wire Wire Line
	3750 2250 3950 2250
Text Label 4100 1250 0    50   ~ 0
AC-L-Relay
Text Label 4100 1450 0    50   ~ 0
AC-N
Text Label 3750 2100 1    50   ~ 0
AC-L
Text GLabel 1550 1350 0    50   Input ~ 0
RELAY
Text GLabel 5300 4550 0    50   Input ~ 0
RELAY
$Comp
L Connector:Conn_01x03_Female DHT22
U 1 1 5FBF2EB0
P 3150 3700
F 0 "DHT22" H 3050 3400 50  0000 C CNN
F 1 "Conn_01x03_Female" H 3178 3635 50  0001 L CNN
F 2 "Connector_PinSocket_2.54mm:PinSocket_1x03_P2.54mm_Vertical" H 3150 3700 50  0001 C CNN
F 3 "~" H 3150 3700 50  0001 C CNN
	1    3150 3700
	-1   0    0    1   
$EndComp
Text GLabel 3350 3600 2    50   Input ~ 0
DHT22_DATA
$Comp
L power:+3V3 #PWR0111
U 1 1 5FBF52F4
P 4000 3450
F 0 "#PWR0111" H 4000 3300 50  0001 C CNN
F 1 "+3V3" H 4015 3623 50  0000 C CNN
F 2 "" H 4000 3450 50  0001 C CNN
F 3 "" H 4000 3450 50  0001 C CNN
	1    4000 3450
	1    0    0    -1  
$EndComp
Wire Wire Line
	3350 3700 4000 3700
$Comp
L power:GND #PWR0112
U 1 1 5FBF6069
P 4000 3850
F 0 "#PWR0112" H 4000 3600 50  0001 C CNN
F 1 "GND" H 4005 3677 50  0000 C CNN
F 2 "" H 4000 3850 50  0001 C CNN
F 3 "" H 4000 3850 50  0001 C CNN
	1    4000 3850
	1    0    0    -1  
$EndComp
Wire Wire Line
	4000 3800 4000 3850
Wire Wire Line
	3350 3800 4000 3800
$Comp
L Device:R R2
U 1 1 5FBF6D73
P 3600 3450
F 0 "R2" V 3393 3450 50  0000 C CNN
F 1 "10k" V 3484 3450 50  0000 C CNN
F 2 "Resistor_THT:R_Axial_DIN0204_L3.6mm_D1.6mm_P7.62mm_Horizontal" V 3530 3450 50  0001 C CNN
F 3 "~" H 3600 3450 50  0001 C CNN
	1    3600 3450
	0    1    1    0   
$EndComp
Wire Wire Line
	5050 3850 5300 3850
Text GLabel 5300 4750 0    50   Input ~ 0
DHT22_DATA
$Comp
L power:+12V #PWR0113
U 1 1 5FBFE6F0
P 5150 1800
F 0 "#PWR0113" H 5150 1650 50  0001 C CNN
F 1 "+12V" H 5165 1973 50  0000 C CNN
F 2 "" H 5150 1800 50  0001 C CNN
F 3 "" H 5150 1800 50  0001 C CNN
	1    5150 1800
	1    0    0    -1  
$EndComp
Wire Wire Line
	5300 1800 5400 1800
Wire Wire Line
	5050 2450 5050 2350
Connection ~ 5050 2450
Wire Wire Line
	5600 1800 5500 1800
Connection ~ 5500 1800
$Comp
L power:+3V3 #PWR0114
U 1 1 5FC09C21
P 6000 1100
F 0 "#PWR0114" H 6000 950 50  0001 C CNN
F 1 "+3V3" H 6015 1273 50  0000 C CNN
F 2 "" H 6000 1100 50  0001 C CNN
F 3 "" H 6000 1100 50  0001 C CNN
	1    6000 1100
	1    0    0    -1  
$EndComp
Wire Wire Line
	5700 1800 5800 1800
Connection ~ 5800 1800
Wire Wire Line
	5800 1800 6000 1800
$Comp
L Transistor_BJT:BC547 Q2
U 1 1 5FC14792
P 7400 2000
F 0 "Q2" H 7591 2046 50  0000 L CNN
F 1 "BC547" H 7591 1955 50  0000 L CNN
F 2 "Package_TO_SOT_THT:TO-92_Inline" H 7600 1925 50  0001 L CIN
F 3 "https://www.onsemi.com/pub/Collateral/BC550-D.pdf" H 7400 2000 50  0001 L CNN
	1    7400 2000
	1    0    0    -1  
$EndComp
Wire Wire Line
	7500 1800 7700 1800
$Comp
L power:GND #PWR0115
U 1 1 5FC17547
P 7500 2200
F 0 "#PWR0115" H 7500 1950 50  0001 C CNN
F 1 "GND" H 7505 2027 50  0000 C CNN
F 2 "" H 7500 2200 50  0001 C CNN
F 3 "" H 7500 2200 50  0001 C CNN
	1    7500 2200
	1    0    0    -1  
$EndComp
$Comp
L Device:R R3
U 1 1 5FC17DD5
P 7050 2000
F 0 "R3" V 7257 2000 50  0000 C CNN
F 1 "1k" V 7166 2000 50  0000 C CNN
F 2 "Resistor_THT:R_Axial_DIN0204_L3.6mm_D1.6mm_P7.62mm_Horizontal" V 6980 2000 50  0001 C CNN
F 3 "~" H 7050 2000 50  0001 C CNN
	1    7050 2000
	0    -1   -1   0   
$EndComp
Text GLabel 6900 2000 0    50   Input ~ 0
#LIGHT
Text GLabel 5300 4650 0    50   Input ~ 0
#LIGHT
$Comp
L SamacSys_Parts:G5PA-1_DC12 K1
U 1 1 5FC38B5F
P 4050 1150
F 0 "K1" H 4700 1415 50  0000 C CNN
F 1 "G5PA-1_DC12" H 4700 1324 50  0000 C CNN
F 2 "G5PA1DC12" H 5200 1250 50  0001 L CNN
F 3 "https://www.mouser.co.uk/datasheet/2/307/g5pa-1_0607-1189588.pdf" H 5200 1150 50  0001 L CNN
F 4 "General Purpose Relays Power PCB Relay" H 5200 1050 50  0001 L CNN "Description"
F 5 "25" H 5200 950 50  0001 L CNN "Height"
F 6 "" H 5200 850 50  0001 L CNN "Mouser Part Number"
F 7 "" H 5200 750 50  0001 L CNN "Mouser Price/Stock"
F 8 "Omron Electronics" H 5200 650 50  0001 L CNN "Manufacturer_Name"
F 9 "G5PA-1 DC12" H 5200 550 50  0001 L CNN "Manufacturer_Part_Number"
	1    4050 1150
	-1   0    0    -1  
$EndComp
Wire Wire Line
	4050 1250 4850 1250
Wire Wire Line
	2750 1250 2750 1450
Wire Wire Line
	2750 1450 3750 1450
Wire Wire Line
	3750 1450 3750 2250
$Comp
L power:+12V #PWR0116
U 1 1 5FC43660
P 4050 1050
F 0 "#PWR0116" H 4050 900 50  0001 C CNN
F 1 "+12V" H 4065 1223 50  0000 C CNN
F 2 "" H 4050 1050 50  0001 C CNN
F 3 "" H 4050 1050 50  0001 C CNN
	1    4050 1050
	1    0    0    -1  
$EndComp
Wire Wire Line
	4050 1150 4050 1050
$Comp
L power:GND #PWR0117
U 1 1 5FC13FB9
P 8000 2000
F 0 "#PWR0117" H 8000 1750 50  0001 C CNN
F 1 "GND" H 8005 1827 50  0000 C CNN
F 2 "" H 8000 2000 50  0001 C CNN
F 3 "" H 8000 2000 50  0001 C CNN
	1    8000 2000
	1    0    0    -1  
$EndComp
$Comp
L power:+12V #PWR0118
U 1 1 5FC12951
P 8550 1850
F 0 "#PWR0118" H 8550 1700 50  0001 C CNN
F 1 "+12V" H 8565 2023 50  0000 C CNN
F 2 "" H 8550 1850 50  0001 C CNN
F 3 "" H 8550 1850 50  0001 C CNN
	1    8550 1850
	1    0    0    -1  
$EndComp
Wire Wire Line
	8000 1600 8000 1400
$Comp
L Transistor_FET:IRF3205 Q3
U 1 1 5FC0D015
P 7900 1800
F 0 "Q3" H 8105 1846 50  0000 L CNN
F 1 "IRF3205" H 8105 1755 50  0000 L CNN
F 2 "Package_TO_SOT_THT:TO-220-3_Vertical" H 8150 1725 50  0001 L CIN
F 3 "http://www.irf.com/product-info/datasheets/data/irf3205.pdf" H 7900 1800 50  0001 L CNN
	1    7900 1800
	1    0    0    -1  
$EndComp
$Comp
L Connector:Barrel_Jack_Switch Light_Out1
U 1 1 5FC0B1B9
P 9000 1750
F 0 "Light_Out1" H 8770 1746 50  0000 R CNN
F 1 "Barrel_Jack_Switch" H 8770 1791 50  0001 R CNN
F 2 "Connector_BarrelJack:BarrelJack_Horizontal" H 9050 1710 50  0001 C CNN
F 3 "~" H 9050 1710 50  0001 C CNN
	1    9000 1750
	-1   0    0    1   
$EndComp
Wire Notes Line
	1150 700  1150 2750
Wire Notes Line
	1150 2750 6150 2750
Wire Notes Line
	6150 2750 6150 700 
Wire Notes Line
	6150 700  1150 700 
Text Notes 1200 650  0    50   ~ 0
Power regulation (AC->DC, AC relay, 12V DC -> 3V3 DC)
Wire Wire Line
	8550 1850 8700 1850
Wire Wire Line
	8700 1750 8700 1650
Wire Wire Line
	8700 1650 8700 1400
Connection ~ 8700 1650
Wire Wire Line
	8000 1400 8700 1400
Text Notes 6550 1000 0    50   ~ 0
12V LED Output
$Comp
L Connector:Screw_Terminal_01x02 Light_Out_Screw1
U 1 1 5FC8291D
P 8900 1300
F 0 "Light_Out_Screw1" H 8980 1246 50  0000 L CNN
F 1 "Screw_Terminal_01x02" H 8980 1201 50  0001 L CNN
F 2 "TerminalBlock:TerminalBlock_bornier-2_P5.08mm" H 8900 1300 50  0001 C CNN
F 3 "~" H 8900 1300 50  0001 C CNN
	1    8900 1300
	1    0    0    -1  
$EndComp
Connection ~ 8700 1400
$Comp
L power:+12V #PWR0119
U 1 1 5FC918AE
P 8700 1300
F 0 "#PWR0119" H 8700 1150 50  0001 C CNN
F 1 "+12V" H 8715 1473 50  0000 C CNN
F 2 "" H 8700 1300 50  0001 C CNN
F 3 "" H 8700 1300 50  0001 C CNN
	1    8700 1300
	1    0    0    -1  
$EndComp
Wire Notes Line
	9600 1050 9600 2450
Wire Notes Line
	6500 1050 6500 2450
Wire Notes Line
	6500 1050 9600 1050
Wire Notes Line
	6500 2450 9600 2450
Wire Notes Line
	4150 3200 2850 3200
Text Notes 2900 3150 0    50   ~ 0
Various sensors and interfaces
$Comp
L Connector:Conn_01x05_Male RotaryEncoder1
U 1 1 5FCA72DC
P 3150 5850
F 0 "RotaryEncoder1" H 3250 6200 50  0000 C CNN
F 1 "Conn_01x05_Male" H 3258 6140 50  0001 C CNN
F 2 "Connector_PinSocket_2.54mm:PinSocket_1x05_P2.54mm_Vertical" H 3150 5850 50  0001 C CNN
F 3 "~" H 3150 5850 50  0001 C CNN
	1    3150 5850
	1    0    0    -1  
$EndComp
Text GLabel 3350 5650 2    50   Input ~ 0
ROT_ENC_CLK
Text GLabel 3350 5750 2    50   Input ~ 0
ROT_ENC_DT
Text GLabel 3350 5850 2    50   Input ~ 0
ROT_ENC_SW
Wire Wire Line
	3350 6050 3850 6050
Wire Notes Line
	4150 3200 4150 6350
Wire Notes Line
	2850 3200 2850 6350
Wire Notes Line
	2850 6350 4150 6350
Wire Wire Line
	4000 5900 4000 5950
Text GLabel 5300 4250 0    50   Input ~ 0
ROT_ENC_CLK
Text GLabel 5300 4150 0    50   Input ~ 0
ROT_ENC_DT
Text GLabel 5300 4050 0    50   Input ~ 0
ROT_ENC_SW
Wire Wire Line
	3350 3600 3350 3450
Wire Wire Line
	3350 3450 3450 3450
Wire Wire Line
	3750 3450 4000 3450
Wire Wire Line
	4000 3450 4000 3700
Connection ~ 4000 3450
Wire Wire Line
	3850 6050 3850 6100
Wire Wire Line
	3350 5950 4000 5950
$Comp
L Connector:Screw_Terminal_01x04 Ext_12V_IN1
U 1 1 5FBD32FC
P 8400 3300
F 0 "Ext_12V_IN1" H 8480 3246 50  0000 L CNN
F 1 "Screw_Terminal_01x04" H 8480 3201 50  0001 L CNN
F 2 "TerminalBlock:TerminalBlock_bornier-4_P5.08mm" H 8400 3300 50  0001 C CNN
F 3 "~" H 8400 3300 50  0001 C CNN
	1    8400 3300
	1    0    0    -1  
$EndComp
$Comp
L Connector:Conn_01x04_Female Ext_IIC1
U 1 1 5FBD5C91
P 9300 3250
F 0 "Ext_IIC1" H 9328 3180 50  0000 L CNN
F 1 "Conn_01x04_Female" H 9328 3135 50  0001 L CNN
F 2 "Connector_PinSocket_2.54mm:PinSocket_1x04_P2.54mm_Vertical" H 9300 3250 50  0001 C CNN
F 3 "~" H 9300 3250 50  0001 C CNN
	1    9300 3250
	1    0    0    -1  
$EndComp
Wire Notes Line
	9600 2800 9600 3850
Wire Notes Line
	9600 3850 7750 3850
Wire Notes Line
	7750 3850 7750 2800
Wire Notes Line
	7750 2800 9600 2800
Text Notes 7800 2750 0    50   ~ 0
Future expandability, with a battery charge controller for example
$Comp
L power:GND #PWR0120
U 1 1 5FBE250C
P 8200 3600
F 0 "#PWR0120" H 8200 3350 50  0001 C CNN
F 1 "GND" H 8205 3427 50  0000 C CNN
F 2 "" H 8200 3600 50  0001 C CNN
F 3 "" H 8200 3600 50  0001 C CNN
	1    8200 3600
	1    0    0    -1  
$EndComp
$Comp
L power:+3V3 #PWR0121
U 1 1 5FBE5BF6
P 9100 3050
F 0 "#PWR0121" H 9100 2900 50  0001 C CNN
F 1 "+3V3" H 9115 3223 50  0000 C CNN
F 2 "" H 9100 3050 50  0001 C CNN
F 3 "" H 9100 3050 50  0001 C CNN
	1    9100 3050
	1    0    0    -1  
$EndComp
Wire Wire Line
	9100 3050 9100 3150
Text GLabel 9100 3250 0    50   Input ~ 0
SDA
Text GLabel 9100 3350 0    50   Input ~ 0
SCL
$Comp
L power:GND #PWR0122
U 1 1 5FBEBB74
P 9100 3550
F 0 "#PWR0122" H 9100 3300 50  0001 C CNN
F 1 "GND" H 9105 3377 50  0000 C CNN
F 2 "" H 9100 3550 50  0001 C CNN
F 3 "" H 9100 3550 50  0001 C CNN
	1    9100 3550
	1    0    0    -1  
$EndComp
Wire Wire Line
	9100 3450 9100 3550
Text GLabel 4650 4950 0    50   Input ~ 0
LCD_SCL
Text GLabel 4650 5050 0    50   Input ~ 0
LCD_SDA
Text GLabel 4700 4950 2    50   Input ~ 0
SCL
Text GLabel 4700 5050 2    50   Input ~ 0
SDA
$Comp
L Device:Polyfuse F1
U 1 1 5FBF1128
P 4900 2250
F 0 "F1" V 4675 2250 50  0000 C CNN
F 1 "Polyfuse_2A" V 4766 2250 50  0000 C CNN
F 2 "Fuse:Fuse_Bourns_MF-RHT300" H 4950 2050 50  0001 L CNN
F 3 "~" H 4900 2250 50  0001 C CNN
	1    4900 2250
	0    1    1    0   
$EndComp
Wire Wire Line
	5050 2350 5500 2350
$Comp
L Device:D_Schottky D1
U 1 1 5FBF9F73
P 8350 3050
F 0 "D1" H 8350 2950 50  0000 C CNN
F 1 "D_Schottky" H 8350 2924 50  0001 C CNN
F 2 "Diode_THT:D_DO-41_SOD81_P12.70mm_Horizontal" H 8350 3050 50  0001 C CNN
F 3 "~" H 8350 3050 50  0001 C CNN
	1    8350 3050
	-1   0    0    1   
$EndComp
Wire Wire Line
	8200 3400 8200 3500
Connection ~ 8200 3500
Wire Wire Line
	8200 3500 8200 3600
Wire Wire Line
	8200 3050 8200 3200
Connection ~ 8200 3200
Wire Wire Line
	8200 3200 8200 3300
$Comp
L power:+12V #PWR0123
U 1 1 5FC04912
P 8500 3050
F 0 "#PWR0123" H 8500 2900 50  0001 C CNN
F 1 "+12V" H 8515 3223 50  0000 C CNN
F 2 "" H 8500 3050 50  0001 C CNN
F 3 "" H 8500 3050 50  0001 C CNN
	1    8500 3050
	1    0    0    -1  
$EndComp
$Comp
L Device:CP C5
U 1 1 5FC0A016
P 7950 3350
F 0 "C5" H 8068 3396 50  0000 L CNN
F 1 "47uF" H 8068 3305 50  0000 L CNN
F 2 "Capacitor_THT:CP_Radial_D6.3mm_P2.50mm" H 7988 3200 50  0001 C CNN
F 3 "~" H 7950 3350 50  0001 C CNN
	1    7950 3350
	1    0    0    -1  
$EndComp
Wire Wire Line
	7950 3200 7950 3050
Wire Wire Line
	7950 3050 8200 3050
Connection ~ 8200 3050
Wire Wire Line
	7950 3500 8200 3500
$Comp
L Device:CP C2
U 1 1 5FC10E84
P 1950 2300
F 0 "C2" H 2068 2346 50  0000 L CNN
F 1 "220u" H 2068 2255 50  0000 L CNN
F 2 "Capacitor_THT:CP_Radial_D8.0mm_P3.80mm" H 1988 2150 50  0001 C CNN
F 3 "~" H 1950 2300 50  0001 C CNN
	1    1950 2300
	1    0    0    -1  
$EndComp
$Comp
L Device:CP C3
U 1 1 5FC12FB0
P 2550 2300
F 0 "C3" H 2668 2346 50  0000 L CNN
F 1 "220u" H 2668 2255 50  0000 L CNN
F 2 "Capacitor_THT:CP_Radial_D8.0mm_P3.80mm" H 2588 2150 50  0001 C CNN
F 3 "~" H 2550 2300 50  0001 C CNN
	1    2550 2300
	1    0    0    -1  
$EndComp
$Comp
L power:+12V #PWR0124
U 1 1 5FC15EC0
P 2550 2150
F 0 "#PWR0124" H 2550 2000 50  0001 C CNN
F 1 "+12V" H 2565 2323 50  0000 C CNN
F 2 "" H 2550 2150 50  0001 C CNN
F 3 "" H 2550 2150 50  0001 C CNN
	1    2550 2150
	1    0    0    -1  
$EndComp
$Comp
L power:+3V3 #PWR0125
U 1 1 5FC17119
P 1950 2150
F 0 "#PWR0125" H 1950 2000 50  0001 C CNN
F 1 "+3V3" H 1965 2323 50  0000 C CNN
F 2 "" H 1950 2150 50  0001 C CNN
F 3 "" H 1950 2150 50  0001 C CNN
	1    1950 2150
	1    0    0    -1  
$EndComp
$Comp
L power:GND #PWR0126
U 1 1 5FC186AF
P 2550 2450
F 0 "#PWR0126" H 2550 2200 50  0001 C CNN
F 1 "GND" H 2555 2277 50  0000 C CNN
F 2 "" H 2550 2450 50  0001 C CNN
F 3 "" H 2550 2450 50  0001 C CNN
	1    2550 2450
	1    0    0    -1  
$EndComp
$Comp
L power:GND #PWR0127
U 1 1 5FC198D6
P 1950 2450
F 0 "#PWR0127" H 1950 2200 50  0001 C CNN
F 1 "GND" H 1955 2277 50  0000 C CNN
F 2 "" H 1950 2450 50  0001 C CNN
F 3 "" H 1950 2450 50  0001 C CNN
	1    1950 2450
	1    0    0    -1  
$EndComp
$Comp
L Device:CP C1
U 1 1 5FC1BC30
P 1500 2300
F 0 "C1" H 1618 2346 50  0000 L CNN
F 1 "220u" H 1618 2255 50  0000 L CNN
F 2 "Capacitor_THT:CP_Radial_D8.0mm_P3.80mm" H 1538 2150 50  0001 C CNN
F 3 "~" H 1500 2300 50  0001 C CNN
	1    1500 2300
	1    0    0    -1  
$EndComp
$Comp
L power:+3V3 #PWR0128
U 1 1 5FC1BC36
P 1500 2150
F 0 "#PWR0128" H 1500 2000 50  0001 C CNN
F 1 "+3V3" H 1515 2323 50  0000 C CNN
F 2 "" H 1500 2150 50  0001 C CNN
F 3 "" H 1500 2150 50  0001 C CNN
	1    1500 2150
	1    0    0    -1  
$EndComp
$Comp
L power:GND #PWR0129
U 1 1 5FC1BC3C
P 1500 2450
F 0 "#PWR0129" H 1500 2200 50  0001 C CNN
F 1 "GND" H 1505 2277 50  0000 C CNN
F 2 "" H 1500 2450 50  0001 C CNN
F 3 "" H 1500 2450 50  0001 C CNN
	1    1500 2450
	1    0    0    -1  
$EndComp
$Comp
L Device:CP C4
U 1 1 5FC1DFC0
P 3000 2300
F 0 "C4" H 3118 2346 50  0000 L CNN
F 1 "220u" H 3118 2255 50  0000 L CNN
F 2 "Capacitor_THT:CP_Radial_D8.0mm_P3.80mm" H 3038 2150 50  0001 C CNN
F 3 "~" H 3000 2300 50  0001 C CNN
	1    3000 2300
	1    0    0    -1  
$EndComp
$Comp
L power:+12V #PWR0130
U 1 1 5FC1DFC6
P 3000 2150
F 0 "#PWR0130" H 3000 2000 50  0001 C CNN
F 1 "+12V" H 3015 2323 50  0000 C CNN
F 2 "" H 3000 2150 50  0001 C CNN
F 3 "" H 3000 2150 50  0001 C CNN
	1    3000 2150
	1    0    0    -1  
$EndComp
$Comp
L power:GND #PWR0131
U 1 1 5FC1DFCC
P 3000 2450
F 0 "#PWR0131" H 3000 2200 50  0001 C CNN
F 1 "GND" H 3005 2277 50  0000 C CNN
F 2 "" H 3000 2450 50  0001 C CNN
F 3 "" H 3000 2450 50  0001 C CNN
	1    3000 2450
	1    0    0    -1  
$EndComp
$Comp
L Device:Polyfuse F2
U 1 1 5FC22CB9
P 6000 1250
F 0 "F2" V 5775 1250 50  0000 C CNN
F 1 "Polyfuse_2A" V 5866 1250 50  0000 C CNN
F 2 "Fuse:Fuse_Bourns_MF-RHT300" H 6050 1050 50  0001 L CNN
F 3 "~" H 6000 1250 50  0001 C CNN
	1    6000 1250
	1    0    0    -1  
$EndComp
Wire Wire Line
	6000 1400 6000 1800
$Comp
L power:Earth #PWR0110
U 1 1 5FBE9DC0
P 4850 1350
F 0 "#PWR0110" H 4850 1100 50  0001 C CNN
F 1 "Earth" H 4850 1200 50  0001 C CNN
F 2 "" H 4850 1350 50  0001 C CNN
F 3 "~" H 4850 1350 50  0001 C CNN
	1    4850 1350
	0    1    1    0   
$EndComp
Wire Wire Line
	3900 1450 4850 1450
Wire Wire Line
	3900 2450 3950 2450
Wire Wire Line
	3750 2450 3900 2450
Connection ~ 3900 2450
Wire Wire Line
	3900 2450 3900 1450
$Comp
L power:+3V3 #PWR0132
U 1 1 5FC338E7
P 3800 5150
F 0 "#PWR0132" H 3800 5000 50  0001 C CNN
F 1 "+3V3" H 3815 5323 50  0000 C CNN
F 2 "" H 3800 5150 50  0001 C CNN
F 3 "" H 3800 5150 50  0001 C CNN
	1    3800 5150
	1    0    0    -1  
$EndComp
$Comp
L power:GND #PWR0133
U 1 1 5FC338ED
P 3800 5350
F 0 "#PWR0133" H 3800 5100 50  0001 C CNN
F 1 "GND" H 3805 5177 50  0000 C CNN
F 2 "" H 3800 5350 50  0001 C CNN
F 3 "" H 3800 5350 50  0001 C CNN
	1    3800 5350
	1    0    0    -1  
$EndComp
Wire Wire Line
	3350 5300 3800 5300
Wire Wire Line
	3800 5200 3800 5150
Wire Wire Line
	3350 5200 3800 5200
Wire Wire Line
	3800 5350 3800 5300
Wire Wire Line
	4650 4950 4700 4950
Wire Wire Line
	4650 5050 4700 5050
NoConn ~ 5300 3550
NoConn ~ 5300 3650
NoConn ~ 5300 3750
NoConn ~ 5300 3950
NoConn ~ 5300 4950
NoConn ~ 5300 5050
NoConn ~ 5300 5250
NoConn ~ 6100 5250
NoConn ~ 6100 5150
NoConn ~ 6100 5050
NoConn ~ 6100 4950
NoConn ~ 6100 4850
NoConn ~ 6100 4750
NoConn ~ 6100 4650
NoConn ~ 6100 4550
NoConn ~ 6100 4450
NoConn ~ 6100 4350
NoConn ~ 6100 4250
NoConn ~ 6100 4150
NoConn ~ 6100 4050
NoConn ~ 6100 3850
NoConn ~ 6100 3550
NoConn ~ 6100 3650
NoConn ~ 6100 3750
$Comp
L Mechanical:MountingHole_Pad H4
U 1 1 5FC68C14
P 7400 5150
F 0 "H4" V 7350 5300 50  0000 L CNN
F 1 "MountingHole" V 7450 5300 50  0000 L CNN
F 2 "MountingHole:MountingHole_3.2mm_M3_ISO14580_Pad" H 7400 5150 50  0001 C CNN
F 3 "~" H 7400 5150 50  0001 C CNN
	1    7400 5150
	0    1    1    0   
$EndComp
Text Notes 7350 4300 0    50   ~ 0
Mounting
$Comp
L Mechanical:MountingHole_Pad H3
U 1 1 5FC6786C
P 7400 4950
F 0 "H3" V 7350 5100 50  0000 L CNN
F 1 "MountingHole" V 7450 5100 50  0000 L CNN
F 2 "MountingHole:MountingHole_3.2mm_M3_ISO14580_Pad" H 7400 4950 50  0001 C CNN
F 3 "~" H 7400 4950 50  0001 C CNN
	1    7400 4950
	0    1    1    0   
$EndComp
$Comp
L Mechanical:MountingHole_Pad H2
U 1 1 5FC66545
P 7400 4750
F 0 "H2" V 7350 4900 50  0000 L CNN
F 1 "MountingHole" V 7450 4900 50  0000 L CNN
F 2 "MountingHole:MountingHole_3.2mm_M3_ISO14580_Pad" H 7400 4750 50  0001 C CNN
F 3 "~" H 7400 4750 50  0001 C CNN
	1    7400 4750
	0    1    1    0   
$EndComp
$Comp
L Mechanical:MountingHole_Pad H1
U 1 1 5FC64A97
P 7400 4550
F 0 "H1" V 7350 4700 50  0000 L CNN
F 1 "MountingHole" V 7450 4700 50  0000 L CNN
F 2 "MountingHole:MountingHole_3.2mm_M3_ISO14580_Pad" H 7400 4550 50  0001 C CNN
F 3 "~" H 7400 4550 50  0001 C CNN
	1    7400 4550
	0    1    1    0   
$EndComp
Wire Notes Line
	8150 4350 8150 5450
Wire Notes Line
	7150 5450 8150 5450
Wire Notes Line
	7150 4350 7150 5450
Wire Notes Line
	7150 4350 8150 4350
$Comp
L power:GND #PWR0134
U 1 1 5FCB502A
P 7300 5150
F 0 "#PWR0134" H 7300 4900 50  0001 C CNN
F 1 "GND" H 7305 4977 50  0000 C CNN
F 2 "" H 7300 5150 50  0001 C CNN
F 3 "" H 7300 5150 50  0001 C CNN
	1    7300 5150
	1    0    0    -1  
$EndComp
Wire Wire Line
	7300 4550 7300 4750
Connection ~ 7300 5150
Connection ~ 7300 4750
Wire Wire Line
	7300 4750 7300 4950
Connection ~ 7300 4950
Wire Wire Line
	7300 4950 7300 5150
$Comp
L Device:CP C6
U 1 1 5FCC0250
P 6750 3650
F 0 "C6" H 6868 3696 50  0000 L CNN
F 1 "47uF" H 6868 3605 50  0000 L CNN
F 2 "Capacitor_THT:CP_Radial_D6.3mm_P2.50mm" H 6788 3500 50  0001 C CNN
F 3 "~" H 6750 3650 50  0001 C CNN
	1    6750 3650
	1    0    0    -1  
$EndComp
$Comp
L power:+3V3 #PWR0135
U 1 1 5FCC1D03
P 6750 3500
F 0 "#PWR0135" H 6750 3350 50  0001 C CNN
F 1 "+3V3" H 6765 3673 50  0000 C CNN
F 2 "" H 6750 3500 50  0001 C CNN
F 3 "" H 6750 3500 50  0001 C CNN
	1    6750 3500
	1    0    0    -1  
$EndComp
$Comp
L power:GND #PWR0136
U 1 1 5FCC31F8
P 6750 3800
F 0 "#PWR0136" H 6750 3550 50  0001 C CNN
F 1 "GND" H 6755 3627 50  0000 C CNN
F 2 "" H 6750 3800 50  0001 C CNN
F 3 "" H 6750 3800 50  0001 C CNN
	1    6750 3800
	1    0    0    -1  
$EndComp
Text Notes 4350 5750 0    50   ~ 0
Idealy, you should connect the external 12V input to the 3D printers internal power supply (or power wall output), \nmaking sure that during printing, the AC to DC brick is unloaded a little.
$Comp
L Device:D_Schottky D2
U 1 1 5FCD37D6
P 5150 1950
F 0 "D2" H 5150 1850 50  0000 C CNN
F 1 "D_Schottky" H 5150 1824 50  0001 C CNN
F 2 "Diode_THT:D_DO-41_SOD81_P12.70mm_Horizontal" H 5150 1950 50  0001 C CNN
F 3 "~" H 5150 1950 50  0001 C CNN
	1    5150 1950
	0    1    1    0   
$EndComp
Wire Wire Line
	5050 2250 5150 2250
Wire Wire Line
	5150 2100 5150 2250
$Comp
L Connector:Conn_01x06_Male 3V3_STEP_DOWN_1
U 1 1 5FBFC6E1
P 5500 1600
F 0 "3V3_STEP_DOWN_1" V 5450 1800 50  0000 R CNN
F 1 "Conn_01x06_Male" V 5350 1450 50  0001 R CNN
F 2 "Connector_PinSocket_2.54mm:PinSocket_1x06_P2.54mm_Vertical" H 5500 1600 50  0001 C CNN
F 3 "~" H 5500 1600 50  0001 C CNN
	1    5500 1600
	0    -1   1    0   
$EndComp
Wire Wire Line
	5150 1800 5300 1800
Connection ~ 5150 1800
Connection ~ 5300 1800
Wire Wire Line
	5500 1800 5500 2350
$Comp
L Device:R R4
U 1 1 60004253
P 7500 1500
F 0 "R4" V 7707 1500 50  0000 C CNN
F 1 "10k" V 7616 1500 50  0000 C CNN
F 2 "Resistor_THT:R_Axial_DIN0204_L3.6mm_D1.6mm_P7.62mm_Horizontal" V 7430 1500 50  0001 C CNN
F 3 "~" H 7500 1500 50  0001 C CNN
	1    7500 1500
	-1   0    0    1   
$EndComp
Wire Wire Line
	7500 1650 7500 1800
Connection ~ 7500 1800
$Comp
L power:+3V3 #PWR0137
U 1 1 600076E4
P 7500 1350
F 0 "#PWR0137" H 7500 1200 50  0001 C CNN
F 1 "+3V3" H 7515 1523 50  0000 C CNN
F 2 "" H 7500 1350 50  0001 C CNN
F 3 "" H 7500 1350 50  0001 C CNN
	1    7500 1350
	1    0    0    -1  
$EndComp
$EndSCHEMATC
